{
  "project_info": {
    "project_number": "464874844805",
    "firebase_url": "https://skripsi5-e9b9c.firebaseio.com",
    "project_id": "skripsi5-e9b9c",
    "storage_bucket": "skripsi5-e9b9c.appspot.com"
  },
  "client": [
    {
      "client_info": {
        "mobilesdk_app_id": "1:464874844805:android:47f02f0f5dc70839",
        "android_client_info": {
          "package_name": "com.jimmy.admin"
        }
      },
      "oauth_client": [
        {
          "client_id": "464874844805-v34dbbc44c1oo4t85evis5s3k5bqgb3n.apps.googleusercontent.com",
          "client_type": 3
        }
      ],
      "api_key": [
        {
          "current_key": "AIzaSyArgCSR1R0KSLJ6syXnqRrP0Xodv0noCGs"
        }
      ],
      "services": {
        "appinvite_service": {
          "other_platform_oauth_client": [
            {
              "client_id": "464874844805-v34dbbc44c1oo4t85evis5s3k5bqgb3n.apps.googleusercontent.com",
              "client_type": 3
            }
          ]
        }
      }
    },
    {
      "client_info": {
        "mobilesdk_app_id": "1:464874844805:android:afb05eb06b6c0863",
        "android_client_info": {
          "package_name": "com.skripsi.agenda_user"
        }
      },
      "oauth_client": [
        {
          "client_id": "464874844805-i5ckd6dp1un6el8n14on4ouvv5qtrmbu.apps.googleusercontent.com",
          "client_type": 1,
          "android_info": {
            "package_name": "com.skripsi.agenda_user",
            "certificate_hash": "0420b08a043f3ccfa2605e2754f0793d76216747"
          }
        },
        {
          "client_id": "464874844805-v34dbbc44c1oo4t85evis5s3k5bqgb3n.apps.googleusercontent.com",
          "client_type": 3
        }
      ],
      "api_key": [
        {
          "current_key": "AIzaSyArgCSR1R0KSLJ6syXnqRrP0Xodv0noCGs"
        }
      ],
      "services": {
        "appinvite_service": {
          "other_platform_oauth_client": [
            {
              "client_id": "464874844805-v34dbbc44c1oo4t85evis5s3k5bqgb3n.apps.googleusercontent.com",
              "client_type": 3
            }
          ]
        }
      }
    }
  ],
  "configuration_version": "1"
}